\relax 
\@writefile{toc}{\contentsline {section}{\numberline {1}Section Uno}{1}\protected@file@percent }
\@writefile{toc}{\contentsline {subsection}{\numberline {1.1}First Subsection}{1}\protected@file@percent }
\@writefile{toc}{\contentsline {subsection}{\numberline {1.2}First SubSubsection}{1}\protected@file@percent }
\@writefile{lot}{\contentsline {table}{\numberline {1}{\ignorespaces This is the first table in the document}}{1}\protected@file@percent }
\newlabel{table:simple}{{1}{1}}
\@writefile{toc}{\contentsline {section}{\numberline {2}Section Dos}{1}\protected@file@percent }
\@writefile{toc}{\contentsline {subsection}{\numberline {2.1}Second Subsection}{1}\protected@file@percent }
\@writefile{lot}{\contentsline {table}{\numberline {2}{\ignorespaces This is the second table in the document}}{2}\protected@file@percent }
\@writefile{toc}{\contentsline {subsection}{\numberline {2.2}Second Subsubsection}{2}\protected@file@percent }
