\relax 
\@writefile{toc}{\contentsline {section}{\numberline {1}Section One}{3}\protected@file@percent }
\@writefile{toc}{\contentsline {subsection}{\numberline {1.1}First Subsection}{3}\protected@file@percent }
\newlabel{eq 1}{{{1}}{3}}
\@writefile{toc}{\contentsline {subsubsection}{\numberline {1.1.1}First SubSubsection}{3}\protected@file@percent }
\bibstyle{abbrv}
\bibdata{CA1_bib_Kalen_Gabel}
\newlabel{eq 2}{{{2}}{4}}
\@writefile{toc}{\contentsline {section}{\numberline {2}Section Dos}{4}\protected@file@percent }
\@writefile{toc}{\contentsline {subsection}{\numberline {2.1}Second Subsection}{4}\protected@file@percent }
\@writefile{toc}{\contentsline {subsubsection}{\numberline {2.1.1}Second Subsubsection}{4}\protected@file@percent }
\@writefile{lof}{\contentsline {figure}{\numberline {1}{\ignorespaces A snip from a patent of a scroll compressor.}}{5}\protected@file@percent }
\newlabel{fig:scroll}{{1}{5}}
\newlabel{table:simple}{{2.1}{6}}
\@writefile{lot}{\contentsline {table}{\numberline {1}{\ignorespaces This is the second table in the document}}{6}\protected@file@percent }
