\contentsline {section}{\numberline {1}Section One}{3}%
\contentsline {subsection}{\numberline {1.1}First Subsection}{3}%
\contentsline {subsubsection}{\numberline {1.1.1}First SubSubsection}{3}%
\contentsline {section}{\numberline {2}Section Dos}{4}%
\contentsline {subsection}{\numberline {2.1}Second Subsection}{4}%
\contentsline {subsubsection}{\numberline {2.1.1}Second Subsubsection}{4}%
