\relax 
\@writefile{toc}{\contentsline {section}{\numberline {1}Project Purpose}{2}\protected@file@percent }
\@writefile{toc}{\contentsline {section}{\numberline {2}Calculations Performed}{2}\protected@file@percent }
\@writefile{toc}{\contentsline {section}{\numberline {3}Result Verification}{3}\protected@file@percent }
\@writefile{lof}{\contentsline {figure}{\numberline {1}{\ignorespaces AHRI\_GUI results at the pre-defined operating conditions.}}{4}\protected@file@percent }
\newlabel{fig:pre defined condition}{{1}{4}}
\@writefile{lof}{\contentsline {figure}{\numberline {2}{\ignorespaces AHRI\_GUI results at the user-defined operating condition 1.}}{5}\protected@file@percent }
\newlabel{fig:user defined condition1}{{2}{5}}
\@writefile{lof}{\contentsline {figure}{\numberline {3}{\ignorespaces AHRI\_GUI results at the user-defined operating condition 2.}}{6}\protected@file@percent }
\newlabel{fig:user defined condition1}{{3}{6}}
